-------------------------------------------------------------------------------
Test set: fds.tpMocks.TestBibliUtilities
-------------------------------------------------------------------------------
Tests run: 9, Failures: 0, Errors: 0, Skipped: 0, Time elapsed: 2.19 sec - in fds.tpMocks.TestBibliUtilities
